Assignments
…
7. Can you conclude that if individuals were to receive more education, then crime will be reported more often? Why or why not?

We are not able to make this conclusion that if individuals were to receive more education that crime will be reported more often. Simply put, correlation does not imply causation. There may be many other outside factors effecting the relationship found here such as:

States with larger budgets that invest more into government and social programs- states that have higher mean education levels because of increased funding into the education system may also having higher funding for police initiatives such as building more streamlined, online reporting portals for crimes, which would likely increase the likelihood that crimes are reported due to the easier process which has no relation to the average education level of its citizens.

Assignment 4

library(tidyverse)

#3.2
mpg

## # A tibble: 234 × 11
##    manufacturer model      displ  year   cyl trans drv     cty   hwy fl    class
##    <chr>        <chr>      <dbl> <int> <int> <chr> <chr> <int> <int> <chr> <chr>
##  1 audi         a4           1.8  1999     4 auto… f        18    29 p     comp…
##  2 audi         a4           1.8  1999     4 manu… f        21    29 p     comp…
##  3 audi         a4           2    2008     4 manu… f        20    31 p     comp…
##  4 audi         a4           2    2008     4 auto… f        21    30 p     comp…
##  5 audi         a4           2.8  1999     6 auto… f        16    26 p     comp…
##  6 audi         a4           2.8  1999     6 manu… f        18    26 p     comp…
##  7 audi         a4           3.1  2008     6 auto… f        18    27 p     comp…
##  8 audi         a4 quattro   1.8  1999     4 manu… 4        18    26 p     comp…
##  9 audi         a4 quattro   1.8  1999     4 auto… 4        16    25 p     comp…
## 10 audi         a4 quattro   2    2008     4 manu… 4        20    28 p     comp…
## # … with 224 more rows
…
